{
  "name": "mob-fr-diamond-kata",
  "sources": [
    {
      "dir": "src/rescript/main",
      "subdirs": true
    },
    {
      "dir": "src/rescript/spec",
      "type": "dev"
    }
  ],
  "package-specs": [
    {
      "module": "commonjs",
      "in-source": true
    }
  ],
  "suffix": ".bs.js",
  "bs-dev-dependencies": [
    "@glennsl/rescript-jest"
  ]
}